…
    ## 
    ## -- Column specification ----------------------------------------------------------
    ## cols(
    ##   gender = col_character(),
    ##   type_injury = col_character(),
    ##   arrival_time = col_character()
    ## )

``` r
ae_uk
```

    ## # A tibble: 773,779 x 3
    ##    gender type_injury arrival_time 
    ##    <chr>  <chr>       <chr>        
    ##  1 male   minor       1/1/2010 0:35
    ##  2 male   minor       1/1/2010 0:57
    ##  3 male   minor       1/1/2010 0:42
    ##  4 male   minor       1/1/2010 0:02
    ##  5 male   minor       1/1/2010 0:24
    ##  6 female major       1/1/2010 0:48
    ##  7 female minor       1/1/2010 0:10
    ##  8 male   minor       1/1/2010 0:39
    ##  9 female minor       1/1/2010 0:56
    ## 10 female minor       1/1/2010 0:05
    ## # ... with 773,769 more rows
